Nodes: 9 Tests: 500
Percolation by edges
0 1
 1
 1
 1
 0.998
 0.998
 0.994
 0.994
 0.988
 0.994
0.05 0.988
 0.99
 0.988
 0.98
 0.98
 0.974
 0.984
 0.978
 0.976
 0.958
0.1 0.962
 0.974
 0.962
 0.954
 0.922
 0.936
 0.944
 0.916
 0.93
 0.932
0.15 0.904
 0.89
 0.872
 0.888
 0.85
 0.84
 0.886
 0.828
 0.816
 0.812
0.2 0.776
 0.788
 0.8
 0.744
 0.73
 0.72
 0.738
 0.706
 0.682
 0.702
0.25 0.67
 0.636
 0.628
 0.63
 0.622
 0.552
 0.546
 0.566
 0.542
 0.496
0.3 0.474
 0.466
 0.5
 0.432
 0.438
 0.366
 0.404
 0.34
 0.378
 0.328
0.35 0.33
 0.298
 0.31
 0.25
 0.28
 0.204
 0.22
 0.236
 0.228
 0.216
0.4 0.174
 0.144
 0.148
 0.146
 0.172
 0.15
 0.1
 0.086
 0.088
 0.11
0.45 0.086
 0.08
 0.07
 0.084
 0.062
 0.072
 0.064
 0.052
 0.04
 0.036
0.5 0.026
 0.028
 0.03
 0.036
 0.03
 0.044
 0.02
 0.026
 0.018
 0.016
0.55 0.016
 0.012
 0.006
 0.008
 0.008
 0.006
 0.006
 0.006
 0.004
 0.002
0.6 0.006
 0.004
 0.006
 0.004
 0
 0.004
 0
 0.004
 0.004
 0
0.65 0
 0.002
 0
 0
 0.002
 0
 0.002
 0
 0
 0.002
0.7 0
 0
 0
 0
 0
 0
 0
 0
 0
 0
0.75 0
 0
 0.002
 0
 0
 0
 0
 0.002
 0
 0
0.8 0.002
 0
 0
 0.002
 0.002
 0.002
 0
 0
 0
 0.002
0.85 0
 0.006
 0.004
 0.012
 0.004
 0.004
 0.014
 0.006
 0.014
 0.018
0.9 0.032
 0.034
 0.046
 0.066
 0.074
 0.066
 0.118
 0.132
 0.176
 0.216
0.95 0.268
 0.328
 0.368
 0.448
 0.542
 0.622
 0.752
 0.822
 0.916
 0.972
1 1
