Introduce n, rand o complete o square o triangular, Nodes o Edges
Nodes: 4 Tests: 500
Graph type: 3dsquare
Percolation by Nodes
0 1
 1
 1
 1
 1
 0.998
 1
 1
 0.998
 1
0.05 1
 0.998
 0.996
 0.996
 0.996
 0.998
 0.996
 0.994
 1
 0.988
0.1 0.992
 0.992
 0.982
 0.984
 0.986
 0.984
 0.976
 0.97
 0.978
 0.968
0.15 0.974
 0.948
 0.974
 0.952
 0.932
 0.96
 0.928
 0.916
 0.936
 0.912
0.2 0.914
 0.924
 0.896
 0.908
 0.892
 0.858
 0.894
 0.86
 0.838
 0.83
0.25 0.822
 0.804
 0.8
 0.764
 0.766
 0.724
 0.73
 0.732
 0.708
 0.698
0.3 0.66
 0.662
 0.702
 0.604
 0.614
 0.626
 0.63
 0.564
 0.504
 0.534
0.35 0.558
 0.552
 0.478
 0.47
 0.466
 0.498
 0.43
 0.408
 0.418
 0.388
0.4 0.38
 0.362
 0.29
 0.33
 0.298
 0.292
 0.302
 0.274
 0.228
 0.222
0.45 0.218
 0.236
 0.192
 0.16
 0.164
 0.148
 0.154
 0.168
 0.138
 0.14
0.5 0.108
 0.128
 0.092
 0.078
 0.078
 0.084
 0.09
 0.08
 0.068
 0.05
0.55 0.056
 0.04
 0.042
 0.04
 0.03
 0.038
 0.036
 0.026
 0.026
 0.016
0.6 0.012
 0.026
 0.008
 0.018
 0.012
 0.012
 0.004
 0.006
 0.006
 0.006
0.65 0.006
 0.01
 0.004
 0.006
 0.004
 0.002
 0.002
 0
 0
 0.004
0.7 0
 0
 0.002
 0
 0
 0
 0
 0
 0.002
 0.004
0.75 0
 0.002
 0
 0
 0
 0
 0
 0
 0
 0
0.8 0
 0
 0
 0
 0
 0
 0
 0
 0
 0
0.85 0.002
 0.002
 0
 0.002
 0.002
 0.002
 0.002
 0.004
 0.008
 0.004
0.9 0.014
 0.016
 0.022
 0.036
 0.016
 0.066
 0.07
 0.078
 0.096
 0.144
0.95 0.184
 0.23
 0.284
 0.364
 0.424
 0.562
 0.632
 0.754
 0.89
 0.97
1 1
